02 Estimadores
…
Hacer un append de la tabla, ordear y conservar el registro con mayor nmero de votos

tabla_estimaciones <- bind_rows(tabla1, tabla2, tabla3, tabla4, tabla5, tabla6) %>% 
                      arrange(edo_id,desc(estimacion)) %>% 
                      group_by(edo_id) %>% 
                      top_n(1)

## Selecting by estimacion

tabla_estimaciones

## # A tibble: 32 x 3
## # Groups:   edo_id [32]
##    edo_id nombre_partido estimacion
##     <dbl> <chr>               <dbl>
##  1      1 pan               179886.
##  2      2 pan               436847.
##  3      3 prd_pt_conv        75358.
##  4      4 prd_pt_conv       100680.
##  5      5 pan               397749.
##  6      6 pan               105760.
##  7      7 prd_pt_conv       558419.
##  8      8 pan               544949.
##  9      9 prd_pt_conv      2856449.
## 10     10 pan               257531.
## #  with 22 more rows
…
