Tarea 02. Muestreo Estratificado
…
## `summarise()` ungrouping output (override with `.groups` argument)

# creamos vectores auxiliales 
vector_estratos <- tabla_auxiliar %>% select(artists) %>% pull()
vector_Nh <- tabla_auxiliar %>% select(Nh) %>% pull()
vector_nh <- tabla_auxiliar %>% select(nh) %>% pull()
vector_fh <- tabla_auxiliar %>% select(factorh) %>% pull()

print(tabla_auxiliar)

## # A tibble: 110 x 4
##    artists                    Nh    nh factorh
##    <chr>                   <int> <dbl>   <dbl>
##  1 ['$uicideBoy$']            52     2    26  
##  2 ['5 Seconds of Summer']    45     2    22.5
##  3 ['50 Cent']                50     2    25  
##  4 ['A Day To Remember']      53     2    26.5
##  5 ['Adele']                  41     2    20.5
##  6 ['Alan Jackson']           41     2    20.5
##  7 ['Arctic Monkeys']         60     3    20  
##  8 ['Ariana Grande']          49     2    24.5
##  9 ['Avenged Sevenfold']      62     3    20.7
## 10 ['Avril Lavigne']          39     2    19.5
## #  with 100 more rows
…
