Tarea_01
…
## # A tibble: 1 x 3
##   num_viv num_hog suma_factor
##     <int>   <int>       <dbl>
## 1   73405   74647    34744818

¿Cuántas viviendas y cuántos hogares hay en la muestra por estado?. ¿Qué estado tiene mayor número de muestra?

datos %>% group_by(cve_edo) %>% 
  mutate(llave_hogar = paste(folioviv,foliohog,sep = "_")) %>% 
  summarise(num_viv = n_distinct(folioviv), num_hog = n_distinct(llave_hogar), suma_factor = sum(factor)) %>% 
  arrange(desc(num_hog)) 

## `summarise()` ungrouping output (override with `.groups` argument)

## # A tibble: 32 x 4
##    cve_edo num_viv num_hog suma_factor
##    <chr>     <int>   <int>       <dbl>
##  1 08         3772    3784     1151023
##  2 02         3306    3322     1078478
##  3 05         3160    3186      846952
##  4 22         3028    3126      578509
##  5 19         3011    3043     1497190
##  6 25         2849    2887      865313
##  7 15         2811    2857     4773217
##  8 06         2726    2785      233679
##  9 11         2593    2658     1523467
## 10 31         2399    2463      608564
## # … with 22 more rows
…
