04 Totales y Proporciones
…
viviendas_15a %>% summarise( registros = n())

## # A tibble: 1 x 1
##   registros
##       <int>
## 1    220655

Nmero de registros de viviendas por municipio

# Por qu incluir la variable ENT en el group by?. Es una buena prctica para no perder el identificador
viviendas_15a %>% group_by(ENT, NOM_ENT, MUN, NOM_MUN) %>%  summarise( registros = n())

## `summarise()` regrouping output by 'ENT', 'NOM_ENT', 'MUN' (override with `.groups` argument)

## # A tibble: 125 x 5
## # Groups:   ENT, NOM_ENT, MUN [125]
##    ENT   NOM_ENT MUN   NOM_MUN                registros
##    <chr> <chr>   <chr> <chr>                      <int>
##  1 15    Mxico  001   Acambay                     1388
##  2 15    Mxico  002   Acolman                     1753
##  3 15    Mxico  003   Aculco                       957
##  4 15    Mxico  004   Almoloya de Alquisiras       889
##  5 15    Mxico  005   Almoloya de Jurez           866
##  6 15    Mxico  006   Almoloya del Ro             912
##  7 15    Mxico  007   Amanalco                    1262
##  8 15    Mxico  008   Amatepec                    1177
##  9 15    Mxico  009   Amecameca                   1012
## 10 15    Mxico  010   Apaxco                      1594
## #  with 115 more rows
…
Estimacin del nmero de viviendas y personas por municipio

tabla_viviendas <- viviendas_15a %>% 
  mutate(num_personas = parse_number(NUMPERS)) %>% 
  group_by(ENT, NOM_ENT, MUN, NOM_MUN) %>%  
  summarise( num_viviendas = sum(FACTOR), num_personas = sum(FACTOR*num_personas)) %>% 
  ungroup()

## `summarise()` regrouping output by 'ENT', 'NOM_ENT', 'MUN' (override with `.groups` argument)

tabla_viviendas

## # A tibble: 125 x 6
##    ENT   NOM_ENT MUN   NOM_MUN                num_viviendas num_personas
##    <chr> <chr>   <chr> <chr>                          <dbl>        <dbl>
##  1 15    Mxico  001   Acambay                        13676        60072
##  2 15    Mxico  002   Acolman                        33032       132963
##  3 15    Mxico  003   Aculco                         10118        44045
##  4 15    Mxico  004   Almoloya de Alquisiras          3400        14344
##  5 15    Mxico  005   Almoloya de Jurez             33547       144319
##  6 15    Mxico  006   Almoloya del Ro                2581        11624
##  7 15    Mxico  007   Amanalco                        4983        21614
##  8 15    Mxico  008   Amatepec                        6108        24709
##  9 15    Mxico  009   Amecameca                      11974        49811
## 10 15    Mxico  010   Apaxco                          6127        25884
## #  with 115 more rows
…
