01 Muestreo Sistemático
…
Los elementos aparecen en un orden periódico.

En este caso el muestreo sistématico será menos preciso que muestreo aleatorio ya que podría pasar que la muestra sistemática contenga elementos cuyos valores sean muy similares.

precios_periodicos <- precios_ordenados %>% 
                      mutate(periodo = id_ordenada %% q,
                             periodo = ifelse(periodo == 0, q, periodo)) %>% 
                      arrange(periodo) %>% 
                      mutate(id_periodico = row_number())

head(precios_periodicos, n = 25)

## # A tibble: 25 x 5
##       Id SalePrice id_ordenada periodo id_periodico
##    <dbl>     <dbl>       <int>   <dbl>        <int>
##  1   496     34900           1       1            1
##  2   376     61000          15       1            2
##  3   330     78000          29       1            3
##  4  1062     81000          43       1            4
##  5  1050     84900          57       1            5
##  6   343     87500          71       1            6
##  7   999     91000          85       1            7
##  8    98     94750          99       1            8
##  9   973     99500         113       1            9
## 10  1010    102000         127       1           10
## # … with 15 more rows
…
precios_periodicos %>%  filter(SalePrice > 400000)

## # A tibble: 28 x 5
##       Id SalePrice id_ordenada periodo id_periodico
##    <dbl>     <dbl>       <int>   <dbl>        <int>
##  1   350    437154        1443       1          104
##  2   899    611657        1457       1          105
##  3    59    438780        1444       2          209
##  4  1170    625000        1458       2          210
##  5   474    440000        1445       3          314
##  6  1183    745000        1459       3          315
##  7   528    446261        1446       4          419
##  8   692    755000        1460       4          420
##  9   662    402000        1433       5          523
## 10   592    451950        1447       5          524
## # … with 18 more rows
…
